HS &   & 1.00 & 0.50 & 0.62 & 0.68 & 0.48 & 0.51 & 0.42 & 0.42 &   & 1.00 & 0.50 & 0.62 & 0.68 & 0.48 & 0.51 & 0.42 & 0.42\\
RM &   &   NA & 1.00 & 0.96 & 0.91 & 0.86 & 0.85 & 0.88 & 0.89 &   &   NA & 1.00 & 0.96 & 0.91 & 0.86 & 0.85 & 0.88 & 0.89\\
GJR &   &   NA &   NA & 1.00 & 0.94 & 0.91 & 0.87 & 0.83 & 0.83 &   &   NA &   NA & 1.00 & 0.94 & 0.91 & 0.87 & 0.83 & 0.83\\
GAS &   &   NA &   NA &   NA & 1.00 & 0.80 & 0.83 & 0.84 & 0.85 &   &   NA &   NA &   NA & 1.00 & 0.80 & 0.83 & 0.84 & 0.85\\
G1F &   &   NA &   NA &   NA &   NA & 1.00 & 0.91 & 0.78 & 0.77 &   &   NA &   NA &   NA &   NA & 1.00 & 0.91 & 0.78 & 0.77\\
G2F &   &   NA &   NA &   NA &   NA &   NA & 1.00 & 0.80 & 0.79 &   &   NA &   NA &   NA &   NA &   NA & 1.00 & 0.80 & 0.79\\
ASES &   &   NA &   NA &   NA &   NA &   NA &   NA & 1.00 & 0.99 &   &   NA &   NA &   NA &   NA &   NA &   NA & 1.00 & 0.99\\
SAVES &   &   NA &   NA &   NA &   NA &   NA &   NA &   NA & 1.00 &   &   NA &   NA &   NA &   NA &   NA &   NA &   NA & 1.00\\
