HS &   & 1.00 & 0.69 & 0.56 & 0.66 & 0.66 & 0.62 & 0.55 & 0.57 &   & 1.00 & 0.69 & 0.56 & 0.66 & 0.66 & 0.62 & 0.55 & 0.57\\
RM &   &   NA & 1.00 & 0.94 & 0.99 & 0.95 & 0.92 & 0.93 & 0.95 &   &   NA & 1.00 & 0.94 & 0.99 & 0.95 & 0.92 & 0.93 & 0.95\\
GJR &   &   NA &   NA & 1.00 & 0.96 & 0.92 & 0.92 & 0.99 & 0.96 &   &   NA &   NA & 1.00 & 0.96 & 0.92 & 0.92 & 0.99 & 0.96\\
GAS &   &   NA &   NA &   NA & 1.00 & 0.93 & 0.93 & 0.95 & 0.98 &   &   NA &   NA &   NA & 1.00 & 0.93 & 0.93 & 0.95 & 0.98\\
G1F &   &   NA &   NA &   NA &   NA & 1.00 & 0.92 & 0.90 & 0.89 &   &   NA &   NA &   NA &   NA & 1.00 & 0.92 & 0.90 & 0.89\\
G2F &   &   NA &   NA &   NA &   NA &   NA & 1.00 & 0.91 & 0.90 &   &   NA &   NA &   NA &   NA &   NA & 1.00 & 0.91 & 0.90\\
ASES &   &   NA &   NA &   NA &   NA &   NA &   NA & 1.00 & 0.96 &   &   NA &   NA &   NA &   NA &   NA &   NA & 1.00 & 0.96\\
SAVES &   &   NA &   NA &   NA &   NA &   NA &   NA &   NA & 1.00 &   &   NA &   NA &   NA &   NA &   NA &   NA &   NA & 1.00\\
