  &   & HS &   &   & 43 &   & 57 &   &   & 43 &   & 57\\
  &   & RM &   &   & 43 &   & 57 &   & 14 & 43 &   & 43\\
  &   & GJR &   &   & 43 &   & 57 &   & 14 & 29 &   & 57\\
  &   & GAS &   &   & 29 &   & 71 &   &   & 29 &   & 71\\
  &   & G1F &   &   &   &   & 100 &   &   & 14 &   & 86\\
  &   & G2F &   &   & 29 & 57 & 14 &   &   & 29 & 43 & 29\\
  &   & ASES &   & 14 &   & 57 & 29 &   & 14 &   & 57 & 29\\
  &   & SAVES &   & 14 &   & 71 & 14 &   & 14 &   & 86 &  \\
