  &   & HS &   &   & 0.29 &   & 0.71 &   &   & 0.29 &   & 0.71\\
  &   & RM &   &   & 0.43 &   & 0.57 &   & 0.14 & 0.14 &   & 0.71\\
  &   & GJR &   &   & 0.29 &   & 0.71 &   & 0.14 & 0.29 &   & 0.57\\
  &   & GAS &   &   & 0.29 &   & 0.71 &   &   & 0.29 &   & 0.71\\
  &   & G1F &   &   & 0.29 &   & 0.71 &   &   & 0.14 &   & 0.86\\
  &   & G2F &   &   & 0.29 & 0.14 & 0.57 &   &   & 0.29 &   & 0.71\\
  &   & ASES &   &   &   & 1 &   &   &   &   & 0.86 & 0.14\\
  &   & SAVES &   &   & 0.14 & 0.86 &   &   &   & 0.14 & 0.71 & 0.14\\
