  &   & HS &   &   & 100 &   &   &   &   & 86 &   & 14\\
  &   & RM &   &   & 43 & 57 &   &   &   & 43 & 57 &  \\
  &   & GJR &   &   & 57 & 43 &   &   &   & 57 & 43 &  \\
  &   & GAS &   & 29 &   & 71 &   &   & 14 & 14 & 71 &  \\
  &   & G1F &   &   & 71 & 29 &   &   &   & 71 & 29 &  \\
  &   & G2F &   &   & 86 & 14 &   &   &   & 86 &   & 14\\
  &   & ASES &   & 29 &   & 71 &   &   & 29 &   & 71 &  \\
  &   & SAVES &   & 29 &   & 71 &   &   & 14 &   & 86 &  \\
