  &   & HS &   &   & 1 &   &   &   &   & 1 &   &  \\
  &   & RM &   & 0.14 & 0.43 & 0.29 & 0.14 &   &   & 0.57 & 0.29 & 0.14\\
  &   & GJR &   & 0.14 & 0.43 & 0.29 & 0.14 &   &   & 0.43 & 0.43 & 0.14\\
  &   & GAS &   &   & 0.29 & 0.71 &   &   &   & 0.29 & 0.57 & 0.14\\
  &   & G1F &   &   & 0.86 & 0.14 &   &   &   & 0.86 & 0.14 &  \\
  &   & G2F &   &   & 0.43 & 0.29 & 0.29 &   &   & 0.14 & 0.29 & 0.57\\
  &   & ASES &   & 0.14 &   & 0.86 &   &   & 0.14 &   & 0.86 &  \\
  &   & SAVES &   & 0.14 &   & 0.86 &   &   & 0.14 &   & 0.71 & 0.14\\
