HS &   & 1.039 &   &    NA & 0.944 & 0.948 & 0.933 & 0.946 & 0.949 & 0.914 & 0.921\\
RM &   & 0.955 &   &    NA &    NA & 0.946 & 0.936 & 0.936 & 0.945 & 0.914 & 0.920\\
GJR &   & 0.957 &   &    NA &    NA &    NA & 0.936 & 0.939 & 0.947 & 0.914 & 0.920\\
GAS &   & 0.946 &   &    NA &    NA &    NA &    NA & 0.928 & 0.936 & 0.913 & 0.920\\
G1F &   & 0.958 &   &    NA &    NA &    NA &    NA &    NA & 0.942 & 0.914 & 0.918\\
G2F &   & 0.955 &   &    NA &    NA &    NA &    NA &    NA &    NA & 0.914 & 0.921\\
ASES &   & 0.915 &   &    NA &    NA &    NA &    NA &    NA &    NA &    NA & 0.914\\
SAVES &   & 0.921 &   &    NA &    NA &    NA &    NA &    NA &    NA &    NA &    NA\\
