HS &   & 1.461 &   &    NA & 1.315 & 1.321 & 1.295 & 1.324 & 1.327 & 1.262 & 1.266\\
RM &   & 1.430 &   &    NA &    NA & 1.317 & 1.296 & 1.310 & 1.314 & 1.258 & 1.262\\
GJR &   & 1.394 &   &    NA &    NA &    NA & 1.297 & 1.314 & 1.320 & 1.257 & 1.262\\
GAS &   & 1.325 &   &    NA &    NA &    NA &    NA & 1.294 & 1.293 & 1.260 & 1.263\\
G1F &   & 1.338 &   &    NA &    NA &    NA &    NA &    NA & 1.320 & 1.255 & 1.258\\
G2F &   & 1.334 &   &    NA &    NA &    NA &    NA &    NA &    NA & 1.256 & 1.258\\
ASES &   & 1.261 &   &    NA &    NA &    NA &    NA &    NA &    NA &    NA & 1.261\\
SAVES &   & 1.267 &   &    NA &    NA &    NA &    NA &    NA &    NA &    NA &    NA\\
