HS &   & 8.395 &   &    NA & 7.048 & 6.806 & 6.976 & 6.896 & 6.823 & 6.818 & 7.019\\
RM &   & 7.251 &   &    NA &    NA & 6.838 & 6.986 & 6.893 & 6.817 & 6.866 & 6.996\\
GJR &   & 6.907 &   &    NA &    NA &    NA & 6.827 & 6.806 & 6.762 & 6.838 & 6.825\\
GAS &   & 7.116 &   &    NA &    NA &    NA &    NA & 6.879 & 6.812 & 6.879 & 6.987\\
G1F &   & 6.959 &   &    NA &    NA &    NA &    NA &    NA & 6.829 & 6.783 & 6.859\\
G2F &   & 6.850 &   &    NA &    NA &    NA &    NA &    NA &    NA & 6.737 & 6.791\\
ASES &   & 6.888 &   &    NA &    NA &    NA &    NA &    NA &    NA &    NA & 6.879\\
SAVES &   & 7.055 &   &    NA &    NA &    NA &    NA &    NA &    NA &    NA &    NA\\
