HS &   &   & 0.001* & 0.000* & 0.001  & 0.001* & 0.001  & 0.000* & 0.000* &   &   & 0.001  & 0.000  & 0.001  & 0.002  & 0.007  & 0.001  & 0.040 \\
RM &   & 0.064* &   & 0.002* & 0.000  & 0.000* & 0.054  & 0.000  & 0.001  &   & 0.150  &   & 0.001* & 0.010  & 0.000  & 0.174  & 0.001  & 0.009 \\
GJR &   & 0.061* & 0.081* &   & 0.000* & 0.092* & 0.034* & 0.000* & 0.001  &   & 0.178  & 0.082* &   & 0.009  & 0.117  & 0.142  & 0.002  & 0.037*\\
GAS &   & 0.197  & 0.129  & 0.036* &   & 0.381  & 0.061* & 0.143  & 0.051  &   & 0.610  & 0.508  & 0.614  &   & 0.484  & 0.234  & 0.173  & 0.209 \\
G1F &   & 0.067* & 0.079* & 0.013* & 0.204  &   & 0.004* & 0.005  & 0.006  &   & 0.382  & 0.191  & 0.064  & 0.184  &   & 0.064* & 0.017  & 0.069 \\
G2F &   & 0.635  & 0.532  & 0.085* & 0.050* & 0.099* &   & 0.062  & 0.033* &   & 0.694  & 0.480  & 0.066  & 0.008  & 0.092* &   & 0.066  & 0.350 \\
ASES &   & 0.087* & 0.141  & 0.100* & 0.310  & 0.172  & 0.158  &   & 0.171  &   & 0.233  & 0.375  & 0.385  & 0.217  & 0.418  & 0.308  &   & 0.606 \\
SAVES &   & 0.091* & 0.413  & 0.135  & 0.250  & 0.197  & 0.071* & 0.404  &   &   & 0.391  & 0.564  & 0.089* & 0.174  & 0.105  & 0.298  & 0.216  &  \\
