HS &   &   & 0.000  & 0.000  & 0.000  & 0.000* & 0.000  & 0.000  & 0.000  &   &   & 0.000  & 0.000  & 0.000  & 0.000* & 0.000  & 0.000  & 0.000 \\
RM &   & 0.130  &   & 0.000  & 0.032  & 0.003* & 0.021  & 0.003  & 0.052  &   & 0.132  &   & 0.000  & 0.045  & 0.002* & 0.022  & 0.001  & 0.068 \\
GJR &   & 0.541  & 0.123  &   & 0.437  & 0.236  & 0.553  & 0.450  & 0.831  &   & 0.574  & 0.108  &   & 0.313  & 0.257  & 0.633  & 0.339  & 0.894 \\
GAS &   & 0.216  & 0.177  & 0.003  &   & 0.016* & 0.098  & 0.019  & 0.794  &   & 0.246  & 0.323  & 0.001  &   & 0.013* & 0.158  & 0.016  & 0.627 \\
G1F &   & 0.033* & 0.028* & 0.009  & 0.015* &   & 0.017  & 0.000* & 0.007* &   & 0.035* & 0.032* & 0.008  & 0.019* &   & 0.015  & 0.001* & 0.009*\\
G2F &   & 0.637  & 0.509  & 0.126  & 0.238  & 0.118  &   & 0.042  & 0.262  &   & 0.479  & 0.399  & 0.096  & 0.147  & 0.131  &   & 0.024  & 0.258 \\
ASES &   & 0.791  & 0.605  & 0.406  & 0.510  & 0.056* & 0.420  &   & 0.815  &   & 0.774  & 0.735  & 0.485  & 0.517  & 0.053* & 0.554  &   & 0.837 \\
SAVES &   & 0.816  & 0.954  & 0.026  & 0.486  & 0.010* & 0.109  & 0.022  &   &   & 0.799  & 0.951  & 0.044  & 0.647  & 0.010* & 0.088  & 0.028  &  \\
