$250$  &        &  6.87  &  5.87  &        &  8.00  & 7.55  \\
$500$  &        & 10.34  & 11.05  &        &  9.55  & 8.85  \\
$1000$ &        & 10.87  & 10.82  &        & 10.25  & 9.05  \\
$2500$ &        &  8.15  &  8.05  &        & 11.95  & 8.50  \\
$5000$ &        &  8.36  &  8.31  &        &  9.00  & 6.55  \\
