$250$  &        & 11.11  & 10.81  &        & 10.93  & 7.62  \\
$500$  &        &  9.51  &  9.61  &        &  9.61  & 7.31  \\
$1000$ &        &  7.34  &  7.94  &        & 11.00  & 6.50  \\
$2500$ &        &  7.76  &  7.06  &        & 10.20  & 6.30  \\
$5000$ &        &  6.38  &  5.37  &        &  8.12  & 4.61  \\
