$250$  &        & 30.20  & 14.30  &        & 30.10  & 12.60 \\
$500$  &        & 20.70  & 18.90  &        & 17.80  & 17.30 \\
$1000$ &        & 22.70  & 12.70  &        & 26.00  & 10.60 \\
$2500$ &        & 16.10  & 15.40  &        & 14.70  & 15.10 \\
$5000$ &        & 21.20  & 11.80  &        & 19.70  & 10.60 \\
