$250$  &        & 34.70  & 12.90  &        & 32.90  & 12.70 \\
$500$  &        & 21.90  & 20.80  &        & 19.50  & 17.70 \\
$1000$ &        & 28.10  & 12.20  &        & 28.30  & 10.90 \\
$2500$ &        & 16.10  & 18.20  &        & 16.10  & 16.60 \\
$5000$ &        & 22.90  & 10.60  &        & 22.20  & 10.60 \\
