$250$  &        & 30.30  & 13.85  &        & 28.70  & 13.55 \\
$500$  &        & 23.70  &  9.95  &        & 21.75  &  9.40 \\
$1000$ &        & 20.20  &  7.90  &        & 19.50  &  7.00 \\
$2500$ &        & 17.80  &  5.85  &        & 15.75  &  6.05 \\
$5000$ &        & 12.45  &  5.50  &        & 15.00  &  6.35 \\
