$250$  &        & 30.30  & 20.50  &        & 23.80  & 16.10 \\
$500$  &        & 23.20  & 14.20  &        & 17.40  & 12.20 \\
$1000$ &        & 17.00  & 11.30  &        & 13.30  &  9.30 \\
$2500$ &        & 11.70  &  7.90  &        &  7.70  &  7.60 \\
$5000$ &        &  8.80  &  5.70  &        &  7.30  &  6.70 \\
