$250$  &        &  7.72  & 19.64  &        &  8.00  &  9.20 &        & 11.74  & 15.85  &        & 14.00  & 9.90  \\
$500$  &        &  5.60  & 15.60  &        & 11.00  & 10.40 &        & 12.60  & 13.70  &        & 15.80  & 9.60  \\
$1000$ &        &  7.10  & 16.30  &        & 14.60  &  9.50 &        & 13.01  & 13.71  &        & 18.00  & 6.20  \\
$2500$ &        & 11.80  & 14.30  &        & 14.80  &  8.50 &        & 12.45  & 11.85  &        & 13.44  & 5.22  \\
$5000$ &        & 12.70  & 12.40  &        & 12.30  &  9.50 &        & 13.60  & 12.59  &        & 12.32  & 8.12  \\
