$250$  &        & 13.13  & 11.77  &        &  9.95  & 7.25  \\
$500$  &        & 11.44  & 10.34  &        & 10.55  & 6.95  \\
$1000$ &        &  7.87  &  7.72  &        &  9.90  & 6.25  \\
$2500$ &        &  7.18  &  6.38  &        & 10.10  & 6.35  \\
$5000$ &        &  7.47  &  6.11  &        &  8.55  & 6.10  \\
