$250$  &        & 17.92  & 15.72  &        & 21.90  & 13.80 \\
$500$  &        & 20.32  & 14.19  &        & 17.70  & 15.73 \\
$1000$ &        & 16.62  & 12.68  &        & 19.60  & 11.42 \\
$2500$ &        & 19.32  & 12.51  &        & 15.10  & 14.66 \\
$5000$ &        & 14.61  & 11.71  &        & 18.80  & 11.55 \\
