$250$  &        & 10.85  & 11.87  & 10.16  &  7.95  &        & 9.17   & 9.18   & 8.27   & 6.35  \\
$500$  &        &  8.41  &  8.91  & 13.67  & 11.43  &        & 7.01   & 6.12   & 7.59   & 8.43  \\
$1000$ &        &  6.83  &  6.70  & 10.87  & 13.15  &        & 3.51   & 4.62   & 5.52   & 6.51  \\
$2500$ &        &  4.80  &  4.80  &  6.80  & 11.45  &        & 4.21   & 4.52   & 5.92   & 6.83  \\
$5000$ &        &  3.80  &  4.12  &  5.02  &  9.80  &        & 3.90   & 4.30   & 6.61   & 5.81  \\
