$250$  &        & 17.49  & 18.41  & 19.23  & 15.11  &        & 13.00  & 13.41  & 14.73  & 11.09 \\
$500$  &        & 15.02  & 14.21  & 18.59  & 18.56  &        & 10.31  & 10.43  & 11.63  & 12.95 \\
$1000$ &        & 11.14  & 10.60  & 16.60  & 20.08  &        &  7.31  &  9.64  &  9.93  & 12.22 \\
$2500$ &        &  8.70  &  8.11  & 10.80  & 16.87  &        &  8.02  &  9.15  & 11.13  & 12.75 \\
$5000$ &        &  7.01  &  7.85  & 10.44  & 16.20  &        &  7.91  &  8.11  &  8.92  & 11.21 \\
