$250$  &        & 29.30  & 21.50  &        & 38.60  & 22.70  &        & 33.30  & 21.30  &        & 46.00  & 22.90 \\
$500$  &        & 24.40  & 16.60  &        & 30.50  & 12.20  &        & 28.00  & 17.20  &        & 36.70  & 14.70 \\
$1000$ &        & 19.20  & 12.90  &        & 23.70  &  9.40  &        & 24.80  & 15.70  &        & 32.30  & 10.20 \\
$2500$ &        & 17.00  & 12.00  &        & 22.60  &  9.30  &        & 20.00  & 11.50  &        & 23.90  &  7.70 \\
$5000$ &        & 19.00  & 11.20  &        & 24.70  & 14.00  &        & 18.90  &  9.10  &        & 24.70  & 12.00 \\
