$250$  &        & 20.92  & 17.42  &        & 13.70  & 10.40 \\
$500$  &        & 17.35  & 14.44  &        &  9.40  &  8.90 \\
$1000$ &        & 13.53  & 12.22  &        &  7.92  &  6.92 \\
$2500$ &        &  9.74  &  9.04  &        &  5.50  &  4.70 \\
$5000$ &        &  8.59  &  7.58  &        &  6.11  &  5.41 \\
