""
"VaR.Encmp.pval.1","VaR.Encmp.pval.2","VaR.Encmp.pval.3","VaR.Encmp.pval.4","VaR.Encmp.pval.5","VaR.Encmp.pval.6","VaR.Encmp.pval.7","VaR.Encmp.pval.8","VaRES.Encmp.pval.1","VaRES.Encmp.pval.2","VaRES.Encmp.pval.3","VaRES.Encmp.pval.4","VaRES.Encmp.pval.5","VaRES.Encmp.pval.6","VaRES.Encmp.pval.7","VaRES.Encmp.pval.8","AuxES.Encmp.pval.1","AuxES.Encmp.pval.2","AuxES.Encmp.pval.3","AuxES.Encmp.pval.4","AuxES.Encmp.pval.5","AuxES.Encmp.pval.6","AuxES.Encmp.pval.7","AuxES.Encmp.pval.8","StrES.Encmp.pval.1","StrES.Encmp.pval.2","StrES.Encmp.pval.3","StrES.Encmp.pval.4","StrES.Encmp.pval.5","StrES.Encmp.pval.6","StrES.Encmp.pval.7","StrES.Encmp.pval.8","VaRES.Encmp.FCcomb.1","VaRES.Encmp.FCcomb.2","VaRES.Encmp.FCcomb.3","VaRES.Encmp.FCcomb.4","VaRES.Encmp.FCcomb.5","VaRES.Encmp.FCcomb.6","VaRES.Encmp.FCcomb.7","VaRES.Encmp.FCcomb.8","VaR.Encmp.FCcomb.1","VaR.Encmp.FCcomb.2","VaR.Encmp.FCcomb.3","VaR.Encmp.FCcomb.4","VaR.Encmp.FCcomb.5","VaR.Encmp.FCcomb.6","VaR.Encmp.FCcomb.7","VaR.Encmp.FCcomb.8","AuxES.Encmp.FCcomb.1","AuxES.Encmp.FCcomb.2","AuxES.Encmp.FCcomb.3","AuxES.Encmp.FCcomb.4","AuxES.Encmp.FCcomb.5","AuxES.Encmp.FCcomb.6","AuxES.Encmp.FCcomb.7","AuxES.Encmp.FCcomb.8","StrES.Encmp.FCcomb.1","StrES.Encmp.FCcomb.2","StrES.Encmp.FCcomb.3","StrES.Encmp.FCcomb.4","StrES.Encmp.FCcomb.5","StrES.Encmp.FCcomb.6","StrES.Encmp.FCcomb.7","StrES.Encmp.FCcomb.8","VaRES.Encmp.FCres.1","VaRES.Encmp.FCres.2","VaRES.Encmp.FCres.3","VaRES.Encmp.FCres.4","VaRES.Encmp.FCres.5","VaRES.Encmp.FCres.6","VaRES.Encmp.FCres.7","VaRES.Encmp.FCres.8","VaR.Encmp.FCres.1","VaR.Encmp.FCres.2","VaR.Encmp.FCres.3","VaR.Encmp.FCres.4","VaR.Encmp.FCres.5","VaR.Encmp.FCres.6","VaR.Encmp.FCres.7","VaR.Encmp.FCres.8","AuxES.Encmp.FCres.1","AuxES.Encmp.FCres.2","AuxES.Encmp.FCres.3","AuxES.Encmp.FCres.4","AuxES.Encmp.FCres.5","AuxES.Encmp.FCres.6","AuxES.Encmp.FCres.7","AuxES.Encmp.FCres.8","StrES.Encmp.FCres.1","StrES.Encmp.FCres.2","StrES.Encmp.FCres.3","StrES.Encmp.FCres.4","StrES.Encmp.FCres.5","StrES.Encmp.FCres.6","StrES.Encmp.FCres.7","StrES.Encmp.FCres.8"
"1",NA,0,0,0,0,0,0,0,NA,0,0,0,0,7.7715611723761e-16,0,0,NA,1.059256665914e-05,1.99171059247494e-05,1.03341042945182e-07,0.000156510424695333,9.3166171608261e-05,1.3448561486662e-08,1.50615775407204e-09,NA,8.50485297121395e-06,1.77749791343551e-05,6.5547411276512e-08,0.00021103301155756,7.567333399916e-05,1.08867955761482e-08,1.10705589140281e-09,NA,1,1,1,1,0,0,0,NA,1,1,1,1,0,0,0,NA,1,1,1,0,0,0,0,NA,1,1,1,0,0,0,0,NA,3,3,3,3,1,1,1,NA,3,3,3,3,NA,NA,NA,NA,3,3,3,1,1,1,1,NA,3,3,3,1,1,1,1
"2",0.0334696179199071,NA,0.373191887160028,0.0130372132062334,0.000468368483867665,0.0753885536366993,3.22342152969668e-12,0,0.0333353670777355,NA,0.20333211261781,0.00207257503280933,0.000914240187975701,0.149850357426501,3.25839355497237e-12,0,0.039500859481329,NA,0.0804764267800795,0.00121977473802692,0.0476356186374837,0.106962648196192,1.11545011990399e-05,3.30555576222302e-06,0.0372987834603848,NA,0.0870006457012601,0.000818412393608248,0.0509985661244052,0.0956799072571861,6.51328053535849e-06,3.04253111083064e-06,NA,NA,0,1,1,0,0,0,NA,NA,0,1,1,0,0,0,NA,NA,1,1,0,0,0,0,NA,NA,1,1,0,0,0,0,NA,NA,2,3,3,1,1,1,NA,NA,2,3,3,NA,NA,NA,NA,NA,3,3,1,0,1,1,NA,NA,3,3,1,1,1,1
"3",0.0302930824441978,0.0206591818891195,NA,2.05744788798201e-05,3.54952082148863e-05,3.33555548110986e-05,0,0,0.0401541801722047,0.017548664610986,NA,5.68438061842036e-05,0.000122126735026207,0.000337098865886509,0,0,0.031674941896055,0.0183638349875083,NA,0.00106240801798108,0.0336980490505923,0.0600489334250419,4.31997005945206e-07,1.07530163906411e-06,0.0315048299798469,0.020200342554241,NA,0.000753181521014668,0.0333265861451386,0.0521795377084929,2.91396113127895e-07,1.22606787122947e-06,NA,NA,NA,1,1,1,0,1,NA,NA,NA,1,1,1,0,0,NA,NA,NA,1,0,0,0,0,NA,NA,NA,1,0,0,0,0,NA,NA,NA,3,3,3,1,1,NA,NA,NA,3,3,3,NA,NA,NA,NA,NA,3,1,1,1,1,NA,NA,NA,3,1,1,1,1
"4",0.0558129228617295,0.0916094547516658,0.068472043315161,NA,0.000557760286274855,0.176536935296282,0,1.55431223447522e-15,0.0345362801254208,0.0261396361721469,0.050207875504705,NA,0.00115084874742399,0.0659610790073236,0,4.44089209850063e-16,0.0129141664962803,0.0129718380413139,0.0365047886133011,NA,0.0357424563250338,0.0399518447808617,0.000302814156066256,0.000259303819460266,0.0135653285951445,0.0103324657736311,0.0271917116069358,NA,0.0387329088023791,0.0310702021678264,0.000221148942162408,0.000199011561098805,NA,NA,NA,NA,1,1,1,0,NA,NA,NA,NA,1,0,1,0,NA,NA,NA,NA,1,1,0,0,NA,NA,NA,NA,1,1,0,0,NA,NA,NA,NA,3,3,3,1,NA,NA,NA,NA,3,2,3,NA,NA,NA,NA,NA,3,3,1,1,NA,NA,NA,NA,3,3,1,1
"5",7.93842062427608e-05,0.013405865174132,5.51082903579303e-05,5.09832622049844e-05,NA,0,1.09665689862481e-08,2.18036112498154e-08,3.90715634109862e-05,0.00996554229850599,7.23728294192982e-05,3.31008786669251e-05,NA,0,5.16372500314333e-10,1.11687459281029e-09,0.287004799048541,0.11098933840279,0.194732442365452,0.0206552380641959,NA,0.210601048217187,6.25159034872702e-06,4.92961033152772e-05,0.286443940517831,0.124453955802958,0.182961522266578,0.0224573308067858,NA,0.208320354755965,2.77766266354451e-06,3.98250873810957e-05,NA,NA,NA,NA,NA,1,0,1,NA,NA,NA,NA,NA,1,0,1,NA,NA,NA,NA,NA,0,0,0,NA,NA,NA,NA,NA,0,1,0,NA,NA,NA,NA,NA,3,1,3,NA,NA,NA,NA,NA,3,NA,3,NA,NA,NA,NA,NA,0,1,1,NA,NA,NA,NA,NA,0,3,1
"6",0.225081415207031,0.108109479725634,0.0356061668624843,2.87648369245996e-06,6.98847630589139e-05,NA,1.46249679033872e-12,1.10662146113327e-10,0.56334239568623,0.104260233890885,0.0964296371192241,8.35193120984901e-06,0.0006730068820755,NA,2.88880031007466e-13,1.31753274956736e-10,0.846673620748828,0.234018719340469,0.565822265116862,0.0258062542474604,0.718191195470152,NA,0.000100833828903801,6.85416637264957e-05,0.854602850524899,0.278446530039491,0.63806758116435,0.0147069674167245,0.697518169693664,NA,0.000111030308324822,5.40257130022814e-05,NA,NA,NA,NA,NA,NA,0,1,NA,NA,NA,NA,NA,NA,0,0,NA,NA,NA,NA,NA,NA,0,1,NA,NA,NA,NA,NA,NA,0,1,NA,NA,NA,NA,NA,NA,1,1,NA,NA,NA,NA,NA,NA,NA,NA,NA,NA,NA,NA,NA,NA,1,3,NA,NA,NA,NA,NA,NA,1,3
"7",0.667256620116959,0.822181441716735,0.918539863121956,0.052376727957139,0.926812256707341,0.891787788194362,NA,0.96632746047419,0.65559325341732,0.499322095965457,0.523658385155512,0.0467219762410633,0.209380086732437,0.271533087346911,NA,0.983008052786777,0.809062746347928,0.435754993688498,0.254840979695698,0.650070602128375,0.118467022395981,0.129402120865027,NA,0.941357744952402,0.820260546156486,0.3735113313676,0.223559152664082,0.659279849390405,0.0829239915147459,0.132134100979311,NA,0.911851193951325,NA,NA,NA,NA,NA,NA,NA,0,NA,NA,NA,NA,NA,NA,NA,0,NA,NA,NA,NA,NA,NA,NA,0,NA,NA,NA,NA,NA,NA,NA,0,NA,NA,NA,NA,NA,NA,NA,2,NA,NA,NA,NA,NA,NA,NA,2,NA,NA,NA,NA,NA,NA,NA,0,NA,NA,NA,NA,NA,NA,NA,0
"8",0.997318859744227,0.656273768060111,0.388087783645651,0.583816440992464,0.0127600621476455,0.664124837312881,0.0138019461969616,NA,0.795418113270325,0.142383898254307,0.0554272849581893,0.166508321137974,0.00101638624964628,0.0628334567115926,0.0415762623408804,NA,0.582206322491818,0.147660274158613,0.180588648626982,0.275831686540842,0.219163267711987,0.0814577455797311,0.651627691955298,NA,0.502765736968522,0.139853612458705,0.183600432756683,0.263193577839871,0.210790626036403,0.0732958756457964,0.670090878051698,NA,NA,NA,NA,NA,NA,NA,NA,NA,NA,NA,NA,NA,NA,NA,NA,NA,NA,NA,NA,NA,NA,NA,NA,NA,NA,NA,NA,NA,NA,NA,NA,NA,NA,NA,NA,NA,NA,NA,NA,NA,NA,NA,NA,NA,NA,NA,NA,NA,NA,NA,NA,NA,NA,NA,NA,NA,NA,NA,NA,NA,NA,NA,NA,NA
