$500$  &        & 3.10   & 2.80   & 8.20   & 9.80   &        & 1.80   & 1.90   & 7.90   & 10.00 \\
$1000$ &        & 2.40   & 2.00   & 6.10   & 7.10   &        & 2.40   & 2.10   & 6.50   &  8.50 \\
$2500$ &        & 1.00   & 1.10   & 4.90   & 5.80   &        & 1.20   & 1.60   & 5.10   &  5.70 \\
$5000$ &        & 1.60   & 1.80   & 4.00   & 5.10   &        & 1.00   & 0.70   & 3.80   &  4.20 \\
