$500$  &        & 12.61  & 10.61  & 12.91  &        & 15.90  & 13.90  & 16.20 \\
$1000$ &        & 11.90  &  9.20  & 12.40  &        & 12.40  & 11.50  & 13.90 \\
$2500$ &        & 11.90  & 10.10  & 11.60  &        & 12.50  & 10.60  & 12.70 \\
$5000$ &        & 10.20  &  8.00  & 12.60  &        & 10.70  &  9.30  & 11.20 \\
