$250$  &        & 28.00  & 21.30  &        & 25.30  & 20.20 &        & 49.20  & 29.50  &        & 45.30  & 26.80 \\
$500$  &        & 24.80  & 15.20  &        & 22.30  & 16.70 &        & 38.40  & 17.80  &        & 41.00  & 18.70 \\
$1000$ &        & 17.00  & 11.80  &        & 17.10  & 13.20 &        & 38.20  & 13.90  &        & 35.10  & 14.40 \\
$2500$ &        & 15.40  & 11.30  &        & 14.00  &  9.50 &        & 32.80  & 11.10  &        & 29.50  & 10.40 \\
$5000$ &        & 14.50  &  9.50  &        & 13.10  & 10.70 &        & 27.20  & 10.40  &        & 25.00  & 10.90 \\
