$250$  &        & 29.03  & 27.63  &        & 19.60  & 17.80 \\
$500$  &        & 25.78  & 24.17  &        & 16.00  & 16.90 \\
$1000$ &        & 21.14  & 19.74  &        & 13.64  & 13.14 \\
$2500$ &        & 16.87  & 16.77  &        & 10.40  &  9.80 \\
$5000$ &        & 15.87  & 13.35  &        & 10.71  & 11.31 \\
