$250$  &        & 38.40  & 30.00  &        & 29.90  & 22.50 & 	     & 36.70  & 31.20  &        & 32.90  & 24.40 \\
$500$  &        & 30.10  & 20.90  &        & 22.80  & 20.60 &        & 33.10  & 28.10  &        & 28.10  & 20.40 \\
$1000$ &        & 22.90  & 17.50  &        & 19.10  & 15.60 &        & 27.80  & 23.30  &        & 26.00  & 18.90 \\
$2500$ &        & 17.30  & 12.90  &        & 13.80  & 11.90 &        & 19.10  & 15.80  &        & 15.80  & 11.70 \\
$5000$ &        & 15.00  & 11.40  &        & 13.10  & 10.70 &        & 14.60  & 14.10  &        & 14.20  & 11.50 \\
