$250$  &        & 29.03  & 27.63  &        & 19.60  & 17.80 &        & 15.55  & 24.77  &        & 17.10  & 14.20 \\
$500$  &        & 25.78  & 24.17  &        & 16.00  & 16.90 &        & 30.80  & 36.07  &        & 17.00  & 11.90 \\
$1000$ &        & 21.14  & 19.74  &        & 13.64  & 13.14 &        & 26.98  & 31.20  &        & 15.13  & 13.63 \\
$2500$ &        & 16.87  & 16.77  &        & 10.40  &  9.80 &        & 22.99  & 24.74  &        & 10.50  &  8.70 \\
$5000$ &        & 15.87  & 13.35  &        & 10.71  & 11.31 &        & 18.91  & 21.69  &        & 10.80  & 10.20 \\
